%YAML 1.1
%TAG !u! tag:unity3d.com,2011:
--- !u!114 &11400000
MonoBehaviour:
  m_ObjectHideFlags: 0
  m_CorrespondingSourceObject: {fileID: 0}
  m_PrefabInternal: {fileID: 0}
  m_GameObject: {fileID: 0}
  m_Enabled: 1
  m_EditorHideFlags: 0
  m_Script: {fileID: 11500000, guid: 69d1ba2a17e467241ba8119fe1205363, type: 3}
  m_Name: Trail3
  m_EditorClassIdentifier: 
  uiImage: {fileID: 21300000, guid: 437b54b7110806a48a8da0d02b4c37a3, type: 3}
  ItemPrice:
    price: 100
    currency: 0
  owned: 0
  trailPrefab: {fileID: 1671353989668492, guid: 8c5e3c23166753440a3ae721cc687457,
    type: 2}
