# This file uses centimeters as units for non-parametric coordinates.

mtllib Nave.mtl
g default
v -0.500001 -0.500000 0.500000
v 0.499999 -0.500000 0.500000
v -0.500001 0.500000 0.500000
v 0.499999 0.500000 0.500000
v -0.500001 0.500000 -0.500000
v 0.499999 0.500000 -0.500000
v -0.500001 -0.500000 -0.500000
v 0.499999 -0.500000 -0.500000
v 1.294487 -0.084307 2.430583
v 1.683254 -0.084307 2.430583
v 1.683254 0.084307 2.430583
v 1.294487 0.084307 2.430583
v 1.294487 0.084307 -2.430583
v 1.683254 0.084307 -2.430583
v 1.683254 -0.084307 -2.430583
v 1.294487 -0.084307 -2.430583
v -1.339038 -0.090229 -0.090229
v -1.339038 -0.090229 0.090229
v -1.339038 0.090229 0.090229
v -1.339038 0.090229 -0.090229
vt 0.375000 0.000000
vt 0.625000 0.000000
vt 0.375000 0.250000
vt 0.625000 0.250000
vt 0.375000 0.500000
vt 0.625000 0.500000
vt 0.375000 0.750000
vt 0.625000 0.750000
vt 0.375000 1.000000
vt 0.625000 1.000000
vt 0.875000 0.000000
vt 0.875000 0.250000
vt 0.125000 0.000000
vt 0.125000 0.250000
vt 0.375000 0.000000
vt 0.625000 0.000000
vt 0.625000 0.250000
vt 0.375000 0.250000
vt 0.375000 0.500000
vt 0.625000 0.500000
vt 0.625000 0.750000
vt 0.375000 0.750000
vt 0.125000 0.000000
vt 0.375000 0.000000
vt 0.375000 0.250000
vt 0.125000 0.250000
vn 0.000000 0.000000 1.000000
vn 0.000000 0.000000 1.000000
vn 0.000000 0.000000 1.000000
vn 0.000000 0.000000 1.000000
vn -0.085290 0.993657 0.073287
vn 0.000000 0.990551 0.137146
vn 0.000000 0.990551 -0.137146
vn -0.085290 0.993657 -0.073287
vn 0.000000 0.000000 -1.000000
vn 0.000000 0.000000 -1.000000
vn 0.000000 0.000000 -1.000000
vn 0.000000 0.000000 -1.000000
vn -0.085290 -0.993657 -0.073287
vn 0.000000 -0.990551 -0.137146
vn 0.000000 -0.990551 0.137146
vn -0.085290 -0.993657 0.073287
vn 1.000000 0.000000 0.000000
vn 1.000000 0.000000 0.000000
vn 1.000000 0.000000 0.000000
vn 1.000000 0.000000 0.000000
vn -1.000000 0.000000 0.000000
vn -1.000000 0.000000 0.000000
vn -1.000000 0.000000 0.000000
vn -1.000000 0.000000 0.000000
vn 0.000000 -0.977595 0.210496
vn 0.000000 -0.977595 0.210496
vn 0.852602 0.000000 -0.522560
vn 0.852602 0.000000 -0.522560
vn 0.852602 0.000000 -0.522560
vn 0.852602 0.000000 -0.522560
vn 0.000000 0.977595 0.210496
vn 0.000000 0.977595 0.210496
vn -0.732452 0.000000 0.680818
vn -0.732452 0.000000 0.680818
vn -0.732452 0.000000 0.680818
vn -0.732452 0.000000 0.680818
vn 0.000000 0.977595 -0.210496
vn 0.000000 0.977595 -0.210496
vn 0.852602 0.000000 0.522560
vn 0.852602 0.000000 0.522560
vn 0.852602 0.000000 0.522560
vn 0.852602 0.000000 0.522560
vn 0.000000 -0.977595 -0.210496
vn 0.000000 -0.977595 -0.210496
vn -0.732452 0.000000 -0.680818
vn -0.732452 0.000000 -0.680818
vn -0.732452 0.000000 -0.680818
vn -0.732452 0.000000 -0.680818
vn -0.438842 -0.898564 0.000000
vn -0.438842 -0.898564 0.000000
vn -0.438842 0.000000 0.898564
vn -0.438842 0.000000 0.898564
vn -0.438842 0.000000 0.898564
vn -0.438842 0.000000 0.898564
vn -0.438842 0.898564 0.000000
vn -0.438842 0.898564 0.000000
vn -0.438842 0.000000 -0.898564
vn -0.438842 0.000000 -0.898564
vn -0.438842 0.000000 -0.898564
vn -0.438842 0.000000 -0.898564
s off
g pCube1
usemtl initialShadingGroup
f 9/15/1 10/16/2 11/17/3 12/18/4
s 1
f 3/3/5 4/4/6 6/6/7 5/5/8
s off
f 13/19/9 14/20/10 15/21/11 16/22/12
s 2
f 7/7/13 8/8/14 2/10/15 1/9/16
s off
f 2/2/17 8/11/18 6/12/19 4/4/20
f 17/23/21 18/24/22 19/25/23 20/26/24
s 2
f 1/1/16 2/2/15 10/16/25 9/15/26
s off
f 2/2/27 4/4/28 11/17/29 10/16/30
s 1
f 4/4/6 3/3/5 12/18/31 11/17/32
s off
f 3/3/33 1/1/34 9/15/35 12/18/36
s 1
f 5/5/8 6/6/7 14/20/37 13/19/38
s off
f 6/6/39 8/8/40 15/21/41 14/20/42
s 2
f 8/8/14 7/7/13 16/22/43 15/21/44
s off
f 7/7/45 5/5/46 13/19/47 16/22/48
s 2
f 7/13/13 1/1/16 18/24/49 17/23/50
s off
f 1/1/51 3/3/52 19/25/53 18/24/54
s 1
f 3/3/5 5/14/8 20/26/55 19/25/56
s off
f 5/14/57 7/13/58 17/23/59 20/26/60
