%YAML 1.1
%TAG !u! tag:unity3d.com,2011:
--- !u!114 &11400000
MonoBehaviour:
  m_ObjectHideFlags: 0
  m_CorrespondingSourceObject: {fileID: 0}
  m_PrefabInternal: {fileID: 0}
  m_GameObject: {fileID: 0}
  m_Enabled: 1
  m_EditorHideFlags: 0
  m_Script: {fileID: 11500000, guid: 74aac63e0efdcbe4f93e29328e7b6894, type: 3}
  m_Name: Ship1
  m_EditorClassIdentifier: 
  uiImage: {fileID: 21300000, guid: 15037bbe085a3d44c94b0f7331e44c58, type: 3}
  ItemPrice:
    price: 0
    currency: 0
  owned: 1
  modelData: {fileID: 11400000, guid: 13b59bcb200b02943a3020a1278d6a72, type: 2}
  material: {fileID: 2100000, guid: e89b05490cebbbe488552f68ceb1ed0f, type: 2}
